…
Local regression model for world life expectancy

### How is life expectancy changing over time on different continents?

``` r
cont_lifeExp = gapminder %>% 
  mutate(wt_mean = pop*lifeExp) %>% 
  group_by(year, continent) %>% 
  summarize(totalYears = sum(wt_mean), totalPop = sum(as.double(pop))) %>% 
  mutate(contLifeExp = totalYears/totalPop) %>% 
  arrange(continent, year)
cont_lifeExp 
```

    ## # A tibble: 60 x 5
    ## # Groups:   year [12]
    ##     year continent   totalYears  totalPop contLifeExp
    ##    <int> <fct>            <dbl>     <dbl>       <dbl>
    ##  1  1952 Africa     9220386795. 237640501        38.8
    ##  2  1957 Africa    10842537827. 264837738        40.9
    ##  3  1962 Africa    12779653318. 296516865        43.1
    ##  4  1967 Africa    15147442886. 335289489        45.2
    ##  5  1972 Africa    17934984442. 379879541        47.2
    ##  6  1977 Africa    21310425240. 433061021        49.2
    ##  7  1982 Africa    25475484368. 499348587        51.0
    ##  8  1987 Africa    30365491264. 574834110        52.8
    ##  9  1992 Africa    35177103943. 659081517        53.4
    ## 10  1997 Africa    39633851359. 743832984        53.3
    ## # ... with 50 more rows
…
